Data Wrangling with dplyr – Data Wrangling & Visualization for Crime Analysts
…
What if we wanted to how many cases are in each race/ethnic group each year? Well, we could include the CIT_RACE variable in our selection AND in the group_by() statement:

phx_uof_2018_2024 |>
  select( INC_YEAR, CIT_RACE ) |> 
  group_by( INC_YEAR, CIT_RACE ) |> 
  summarize( 
    total = n()
    )

# A tibble: 40 × 3
# Groups:   INC_YEAR [7]
   INC_YEAR CIT_RACE                         total
      <int> <chr>                            <int>
 1     2018 American Indian / Alaskan Native    78
 2     2018 Asian / Pacific Islander            12
 3     2018 Black                              244
 4     2018 White                              767
 5     2019 American Indian / Alaskan Native    94
 6     2019 Asian / Pacific Islander             9
 7     2019 Black                              233
 8     2019 White                              876
 9     2020 American Indian / Alaskan Native    88
10     2020 Asian / Pacific Islander             7
# ℹ 30 more rows

We can include multiple cases here if we want additional information:

phx_uof_2018_2024 |>
  select( INC_YEAR, CIT_RACE, CIT_AGE ) |> 
  group_by( INC_YEAR, CIT_RACE ) |> 
  summarize( 
    total = n(),
    mean_age = mean( CIT_AGE )
    )

# A tibble: 40 × 4
# Groups:   INC_YEAR [7]
   INC_YEAR CIT_RACE                         total mean_age
      <int> <chr>                            <int>    <dbl>
 1     2018 American Indian / Alaskan Native    78     31.8
 2     2018 Asian / Pacific Islander            12     38.6
 3     2018 Black                              244     NA  
 4     2018 White                              767     33.7
 5     2019 American Indian / Alaskan Native    94     30.8
 6     2019 Asian / Pacific Islander             9     30.8
 7     2019 Black                              233     32.8
 8     2019 White                              876     NA  
 9     2020 American Indian / Alaskan Native    88     31.6
10     2020 Asian / Pacific Islander             7     39.1
# ℹ 30 more rows

Note that some cases have NA for the mean. This is because we didn’t tell the mean() function what to do with missing values. We can fix that using the na.rm= argument in the function:

phx_uof_2018_2024 |>
  select( INC_YEAR, CIT_RACE, CIT_AGE ) |> 
  group_by( INC_YEAR, CIT_RACE ) |> 
  summarize( 
    total = n(),
    mean_age = mean( CIT_AGE, na.rm = TRUE )
    )

# A tibble: 40 × 4
# Groups:   INC_YEAR [7]
   INC_YEAR CIT_RACE                         total mean_age
      <int> <chr>                            <int>    <dbl>
 1     2018 American Indian / Alaskan Native    78     31.8
 2     2018 Asian / Pacific Islander            12     38.6
 3     2018 Black                              244     33.9
 4     2018 White                              767     33.7
 5     2019 American Indian / Alaskan Native    94     30.8
 6     2019 Asian / Pacific Islander             9     30.8
 7     2019 Black                              233     32.8
 8     2019 White                              876     33.6
 9     2020 American Indian / Alaskan Native    88     31.6
10     2020 Asian / Pacific Islander             7     39.1
# ℹ 30 more rows
…
